module gitlab.com/saintmaur/ws-http-proxy

go 1.20

require (
	github.com/google/uuid v1.1.2
	github.com/gorilla/websocket v1.5.0
	github.com/spf13/viper v1.14.0
	github.com/tidwall/gjson v1.14.4
	github.com/tidwall/sjson v1.2.5
	gitlab.com/saintmaur/lib v1.3.12
)

require (
	github.com/beorn7/perks v1.0.1 // indirect
	github.com/cespare/xxhash/v2 v2.1.2 // indirect
	github.com/fsnotify/fsnotify v1.6.0 // indirect
	github.com/golang/protobuf v1.5.2 // indirect
	github.com/hashicorp/hcl v1.0.0 // indirect
	github.com/magiconair/properties v1.8.6 // indirect
	github.com/matttproud/golang_protobuf_extensions v1.0.1 // indirect
	github.com/mitchellh/mapstructure v1.5.0 // indirect
	github.com/pelletier/go-toml v1.9.5 // indirect
	github.com/pelletier/go-toml/v2 v2.0.5 // indirect
	github.com/prometheus/client_golang v1.14.0 // indirect
	github.com/prometheus/client_model v0.3.0 // indirect
	github.com/prometheus/common v0.37.0 // indirect
	github.com/prometheus/procfs v0.8.0 // indirect
	github.com/spf13/afero v1.9.2 // indirect
	github.com/spf13/cast v1.5.0 // indirect
	github.com/spf13/jwalterweatherman v1.1.0 // indirect
	github.com/spf13/pflag v1.0.5 // indirect
	github.com/subosito/gotenv v1.4.1 // indirect
	github.com/tidwall/match v1.1.1 // indirect
	github.com/tidwall/pretty v1.2.0 // indirect
	go.uber.org/atomic v1.9.0 // indirect
	go.uber.org/multierr v1.8.0 // indirect
	go.uber.org/zap v1.21.0 // indirect
	golang.org/x/sys v0.4.0 // indirect
	golang.org/x/text v0.6.0 // indirect
	google.golang.org/protobuf v1.28.1 // indirect
	gopkg.in/ini.v1 v1.67.0 // indirect
	gopkg.in/yaml.v2 v2.4.0 // indirect
	gopkg.in/yaml.v3 v3.0.1 // indirect
)
